nohup: les entrées sont ignorées
Sending build context to Docker daemon  20.99MB
Step 1/7 : FROM python:3.7-stretch
 ---> 4e886ba4f643
Step 2/7 : RUN apt-get update && apt-get install -y gcc rustc
 ---> Running in 0823660a82fc
Ign:1 http://deb.debian.org/debian stretch InRelease
Get:2 http://security.debian.org/debian-security stretch/updates InRelease [53.0 kB]
Get:3 http://deb.debian.org/debian stretch-updates InRelease [93.6 kB]
Get:4 http://deb.debian.org/debian stretch Release [118 kB]
Get:5 http://deb.debian.org/debian stretch Release.gpg [3177 B]
Get:6 http://security.debian.org/debian-security stretch/updates/main armhf Packages [747 kB]
Get:7 http://deb.debian.org/debian stretch/main armhf Packages [6908 kB]
Fetched 7923 kB in 5s (1427 kB/s)
Reading package lists...
Reading package lists...
Building dependency tree...
Reading state information...
gcc is already the newest version (4:6.3.0-4).
The following additional packages will be installed:
  cargo gdb libbabeltrace-ctf1 libbabeltrace1 libc6-dbg libdw1 libelf1
  libhttp-parser2.1 libllvm7 libpopt0 libpython3.5 libpython3.5-minimal
  libpython3.5-stdlib libstd-rust-1.41 libstd-rust-dev python3.5
  python3.5-minimal rust-gdb
Suggested packages:
  cargo-doc gdb-doc gdbserver python3.5-venv python3.5-doc binfmt-support
  rust-doc rust-src lld-7
The following NEW packages will be installed:
  cargo gdb libbabeltrace-ctf1 libbabeltrace1 libc6-dbg libdw1
  libhttp-parser2.1 libllvm7 libpopt0 libpython3.5 libstd-rust-1.41
  libstd-rust-dev rust-gdb rustc
The following packages will be upgraded:
  libelf1 libpython3.5-minimal libpython3.5-stdlib python3.5 python3.5-minimal
5 upgraded, 14 newly installed, 0 to remove and 83 not upgraded.
Need to get 69.6 MB of archives.
After this operation, 209 MB of additional disk space will be used.
Get:1 http://security.debian.org/debian-security stretch/updates/main armhf python3.5 armhf 3.5.3-1+deb9u5 [231 kB]
Get:2 http://deb.debian.org/debian stretch/main armhf libhttp-parser2.1 armhf 2.1-2 [15.4 kB]
Get:3 http://deb.debian.org/debian stretch/main armhf libpopt0 armhf 1.16-10+b2 [46.1 kB]
Get:4 http://deb.debian.org/debian stretch/main armhf libbabeltrace1 armhf 1.5.1-1 [47.3 kB]
Get:5 http://security.debian.org/debian-security stretch/updates/main armhf libpython3.5-stdlib armhf 3.5.3-1+deb9u5 [2087 kB]
Get:6 http://deb.debian.org/debian stretch/main armhf libbabeltrace-ctf1 armhf 1.5.1-1 [125 kB]
Get:7 http://deb.debian.org/debian stretch/main armhf gdb armhf 7.12-6 [2465 kB]
Get:8 http://security.debian.org/debian-security stretch/updates/main armhf python3.5-minimal armhf 3.5.3-1+deb9u5 [1442 kB]
Get:9 http://security.debian.org/debian-security stretch/updates/main armhf libpython3.5-minimal armhf 3.5.3-1+deb9u5 [567 kB]
Get:10 http://security.debian.org/debian-security stretch/updates/main armhf libelf1 armhf 0.168-1+deb9u1 [154 kB]
Get:11 http://security.debian.org/debian-security stretch/updates/main armhf libdw1 armhf 0.168-1+deb9u1 [192 kB]
Get:12 http://security.debian.org/debian-security stretch/updates/main armhf libpython3.5 armhf 3.5.3-1+deb9u5 [1203 kB]
Get:13 http://security.debian.org/debian-security stretch/updates/main armhf libllvm7 armhf 1:7.0.1-8~deb9u4 [11.3 MB]
Get:14 http://deb.debian.org/debian stretch/main armhf libc6-dbg armhf 2.24-11+deb9u4 [9379 kB]
Get:15 http://security.debian.org/debian-security stretch/updates/main armhf libstd-rust-1.41 armhf 1.41.1+dfsg1-1~deb9u1 [11.9 MB]
Get:16 http://security.debian.org/debian-security stretch/updates/main armhf libstd-rust-dev armhf 1.41.1+dfsg1-1~deb9u1 [24.0 MB]
Get:17 http://security.debian.org/debian-security stretch/updates/main armhf rustc armhf 1.41.1+dfsg1-1~deb9u1 [1694 kB]
Get:18 http://security.debian.org/debian-security stretch/updates/main armhf cargo armhf 0.43.1-3~deb9u1 [2579 kB]
Get:19 http://security.debian.org/debian-security stretch/updates/main armhf rust-gdb all 1.41.1+dfsg1-1~deb9u1 [149 kB]
[91mdebconf: delaying package configuration, since apt-utils is not installed
[0mFetched 69.6 MB in 34s (2018 kB/s)
(Reading database ... (Reading database ... 5%(Reading database ... 10%(Reading database ... 15%(Reading database ... 20%(Reading database ... 25%(Reading database ... 30%(Reading database ... 35%(Reading database ... 40%(Reading database ... 45%(Reading database ... 50%(Reading database ... 55%(Reading database ... 60%(Reading database ... 65%(Reading database ... 70%(Reading database ... 75%(Reading database ... 80%(Reading database ... 85%(Reading database ... 90%(Reading database ... 95%(Reading database ... 100%(Reading database ... 30368 files and directories currently installed.)
Preparing to unpack .../00-python3.5_3.5.3-1+deb9u5_armhf.deb ...
Unpacking python3.5 (3.5.3-1+deb9u5) over (3.5.3-1+deb9u4) ...
Preparing to unpack .../01-libpython3.5-stdlib_3.5.3-1+deb9u5_armhf.deb ...
Unpacking libpython3.5-stdlib:armhf (3.5.3-1+deb9u5) over (3.5.3-1+deb9u4) ...
Preparing to unpack .../02-python3.5-minimal_3.5.3-1+deb9u5_armhf.deb ...
Unpacking python3.5-minimal (3.5.3-1+deb9u5) over (3.5.3-1+deb9u4) ...
Preparing to unpack .../03-libpython3.5-minimal_3.5.3-1+deb9u5_armhf.deb ...
Unpacking libpython3.5-minimal:armhf (3.5.3-1+deb9u5) over (3.5.3-1+deb9u4) ...
Selecting previously unselected package libhttp-parser2.1:armhf.
Preparing to unpack .../04-libhttp-parser2.1_2.1-2_armhf.deb ...
Unpacking libhttp-parser2.1:armhf (2.1-2) ...
Selecting previously unselected package libpopt0:armhf.
Preparing to unpack .../05-libpopt0_1.16-10+b2_armhf.deb ...
Unpacking libpopt0:armhf (1.16-10+b2) ...
Preparing to unpack .../06-libelf1_0.168-1+deb9u1_armhf.deb ...
Unpacking libelf1:armhf (0.168-1+deb9u1) over (0.168-1) ...
Selecting previously unselected package libdw1:armhf.
Preparing to unpack .../07-libdw1_0.168-1+deb9u1_armhf.deb ...
Unpacking libdw1:armhf (0.168-1+deb9u1) ...
Selecting previously unselected package libbabeltrace1:armhf.
Preparing to unpack .../08-libbabeltrace1_1.5.1-1_armhf.deb ...
Unpacking libbabeltrace1:armhf (1.5.1-1) ...
Selecting previously unselected package libbabeltrace-ctf1:armhf.
Preparing to unpack .../09-libbabeltrace-ctf1_1.5.1-1_armhf.deb ...
Unpacking libbabeltrace-ctf1:armhf (1.5.1-1) ...
Selecting previously unselected package libpython3.5:armhf.
Preparing to unpack .../10-libpython3.5_3.5.3-1+deb9u5_armhf.deb ...
Unpacking libpython3.5:armhf (3.5.3-1+deb9u5) ...
Selecting previously unselected package gdb.
Preparing to unpack .../11-gdb_7.12-6_armhf.deb ...
Unpacking gdb (7.12-6) ...
Selecting previously unselected package libllvm7:armhf.
Preparing to unpack .../12-libllvm7_1%3a7.0.1-8~deb9u4_armhf.deb ...
Unpacking libllvm7:armhf (1:7.0.1-8~deb9u4) ...
Selecting previously unselected package libstd-rust-1.41:armhf.
Preparing to unpack .../13-libstd-rust-1.41_1.41.1+dfsg1-1~deb9u1_armhf.deb ...
Unpacking libstd-rust-1.41:armhf (1.41.1+dfsg1-1~deb9u1) ...
Selecting previously unselected package libstd-rust-dev:armhf.
Preparing to unpack .../14-libstd-rust-dev_1.41.1+dfsg1-1~deb9u1_armhf.deb ...
Unpacking libstd-rust-dev:armhf (1.41.1+dfsg1-1~deb9u1) ...
Selecting previously unselected package rustc.
Preparing to unpack .../15-rustc_1.41.1+dfsg1-1~deb9u1_armhf.deb ...
Unpacking rustc (1.41.1+dfsg1-1~deb9u1) ...
Selecting previously unselected package cargo.
Preparing to unpack .../16-cargo_0.43.1-3~deb9u1_armhf.deb ...
Unpacking cargo (0.43.1-3~deb9u1) ...
Selecting previously unselected package libc6-dbg:armhf.
Preparing to unpack .../17-libc6-dbg_2.24-11+deb9u4_armhf.deb ...
Unpacking libc6-dbg:armhf (2.24-11+deb9u4) ...
Selecting previously unselected package rust-gdb.
Preparing to unpack .../18-rust-gdb_1.41.1+dfsg1-1~deb9u1_all.deb ...
Unpacking rust-gdb (1.41.1+dfsg1-1~deb9u1) ...
Setting up libpopt0:armhf (1.16-10+b2) ...
Setting up libc6-dbg:armhf (2.24-11+deb9u4) ...
Processing triggers for mime-support (3.60) ...
Setting up libllvm7:armhf (1:7.0.1-8~deb9u4) ...
Setting up libelf1:armhf (0.168-1+deb9u1) ...
Setting up libstd-rust-1.41:armhf (1.41.1+dfsg1-1~deb9u1) ...
Setting up libstd-rust-dev:armhf (1.41.1+dfsg1-1~deb9u1) ...
Setting up rustc (1.41.1+dfsg1-1~deb9u1) ...
Processing triggers for libc-bin (2.24-11+deb9u4) ...
Setting up libhttp-parser2.1:armhf (2.1-2) ...
Setting up libpython3.5-minimal:armhf (3.5.3-1+deb9u5) ...
Setting up libdw1:armhf (0.168-1+deb9u1) ...
Setting up libpython3.5-stdlib:armhf (3.5.3-1+deb9u5) ...
Setting up python3.5-minimal (3.5.3-1+deb9u5) ...
Setting up cargo (0.43.1-3~deb9u1) ...
Setting up libbabeltrace1:armhf (1.5.1-1) ...
Setting up python3.5 (3.5.3-1+deb9u5) ...
Setting up libpython3.5:armhf (3.5.3-1+deb9u5) ...
Setting up libbabeltrace-ctf1:armhf (1.5.1-1) ...
Setting up gdb (7.12-6) ...
Setting up rust-gdb (1.41.1+dfsg1-1~deb9u1) ...
Processing triggers for libc-bin (2.24-11+deb9u4) ...
Removing intermediate container 0823660a82fc
 ---> a9512ab6c5e1
Step 3/7 : RUN pip3 install --upgrade pip
 ---> Running in 66b5b9630d9e
Requirement already satisfied: pip in /usr/local/lib/python3.7/site-packages (21.2.4)
Collecting pip
  Downloading pip-22.1.2-py3-none-any.whl (2.1 MB)
Installing collected packages: pip
  Attempting uninstall: pip
    Found existing installation: pip 21.2.4
    Uninstalling pip-21.2.4:
      Successfully uninstalled pip-21.2.4
Successfully installed pip-22.1.2
[91mWARNING: Running pip as the 'root' user can result in broken permissions and conflicting behaviour with the system package manager. It is recommended to use a virtual environment instead: https://pip.pypa.io/warnings/venv
[0mRemoving intermediate container 66b5b9630d9e
 ---> ddc4ad701ff8
Step 4/7 : RUN pip3 install pandas selenium datetime requests bs4 fake_useragent sqlalchemy psycopg2
 ---> Running in 516636eca086
Collecting pandas
  Downloading pandas-1.3.5.tar.gz (4.7 MB)
     ━━━━━━━━━━━━━━━━━━━━━━━━━━━━━━━━━━━━━━━━ 4.7/4.7 MB 3.2 MB/s eta 0:00:00
  Installing build dependencies: started
  Installing build dependencies: still running...
  Installing build dependencies: still running...
  Installing build dependencies: still running...
  Installing build dependencies: still running...
  Installing build dependencies: still running...
  Installing build dependencies: still running...
  Installing build dependencies: still running...
  Installing build dependencies: still running...
  Installing build dependencies: finished with status 'done'
  Getting requirements to build wheel: started
  Getting requirements to build wheel: still running...
  Getting requirements to build wheel: finished with status 'done'
  Preparing metadata (pyproject.toml): started
  Preparing metadata (pyproject.toml): finished with status 'done'
Collecting selenium
  Downloading selenium-4.2.0-py3-none-any.whl (983 kB)
     ━━━━━━━━━━━━━━━━━━━━━━━━━━━━━━━━━━━━━ 983.2/983.2 kB 893.5 kB/s eta 0:00:00
Collecting datetime
  Downloading DateTime-4.4-py2.py3-none-any.whl (51 kB)
     ━━━━━━━━━━━━━━━━━━━━━━━━━━━━━━━━━━━━━━━ 51.7/51.7 kB 223.7 kB/s eta 0:00:00
Collecting requests
  Downloading requests-2.27.1-py2.py3-none-any.whl (63 kB)
     ━━━━━━━━━━━━━━━━━━━━━━━━━━━━━━━━━━━━━━━━ 63.1/63.1 kB 2.0 MB/s eta 0:00:00
Collecting bs4
  Downloading bs4-0.0.1.tar.gz (1.1 kB)
  Preparing metadata (setup.py): started
  Preparing metadata (setup.py): finished with status 'done'
Collecting fake_useragent
  Downloading fake-useragent-0.1.11.tar.gz (13 kB)
  Preparing metadata (setup.py): started
  Preparing metadata (setup.py): finished with status 'done'
Collecting sqlalchemy
  Downloading SQLAlchemy-1.4.37.tar.gz (8.2 MB)
     ━━━━━━━━━━━━━━━━━━━━━━━━━━━━━━━━━━━━━━━━ 8.2/8.2 MB 1.8 MB/s eta 0:00:00
  Preparing metadata (setup.py): started
  Preparing metadata (setup.py): finished with status 'done'
Collecting psycopg2
  Downloading psycopg2-2.9.3.tar.gz (380 kB)
     ━━━━━━━━━━━━━━━━━━━━━━━━━━━━━━━━━━━━━ 380.6/380.6 kB 572.9 kB/s eta 0:00:00
  Preparing metadata (setup.py): started
  Preparing metadata (setup.py): finished with status 'done'
Collecting numpy>=1.17.3
  Downloading numpy-1.21.6.zip (10.3 MB)
     ━━━━━━━━━━━━━━━━━━━━━━━━━━━━━━━━━━━━━━━ 10.3/10.3 MB 553.8 kB/s eta 0:00:00
  Installing build dependencies: started
  Installing build dependencies: finished with status 'done'
  Getting requirements to build wheel: started
  Getting requirements to build wheel: finished with status 'done'
  Preparing metadata (pyproject.toml): started
  Preparing metadata (pyproject.toml): finished with status 'done'
Collecting pytz>=2017.3
  Downloading pytz-2022.1-py2.py3-none-any.whl (503 kB)
     ━━━━━━━━━━━━━━━━━━━━━━━━━━━━━━━━━━━━━ 503.5/503.5 kB 774.8 kB/s eta 0:00:00
Collecting python-dateutil>=2.7.3
  Downloading python_dateutil-2.8.2-py2.py3-none-any.whl (247 kB)
     ━━━━━━━━━━━━━━━━━━━━━━━━━━━━━━━━━━━━━ 247.7/247.7 kB 250.8 kB/s eta 0:00:00
Collecting urllib3[secure,socks]~=1.26
  Downloading urllib3-1.26.9-py2.py3-none-any.whl (138 kB)
     ━━━━━━━━━━━━━━━━━━━━━━━━━━━━━━━━━━━━━ 139.0/139.0 kB 210.0 kB/s eta 0:00:00
Collecting trio-websocket~=0.9
  Downloading trio_websocket-0.9.2-py3-none-any.whl (16 kB)
Collecting trio~=0.17
  Downloading trio-0.20.0-py3-none-any.whl (359 kB)
     ━━━━━━━━━━━━━━━━━━━━━━━━━━━━━━━━━━━━━ 359.0/359.0 kB 519.6 kB/s eta 0:00:00
Collecting zope.interface
  Downloading zope.interface-5.4.0.tar.gz (249 kB)
     ━━━━━━━━━━━━━━━━━━━━━━━━━━━━━━━━━━━━━ 249.3/249.3 kB 341.1 kB/s eta 0:00:00
  Preparing metadata (setup.py): started
  Preparing metadata (setup.py): finished with status 'done'
Collecting certifi>=2017.4.17
  Downloading certifi-2022.5.18.1-py3-none-any.whl (155 kB)
     ━━━━━━━━━━━━━━━━━━━━━━━━━━━━━━━━━━━━━ 155.2/155.2 kB 246.8 kB/s eta 0:00:00
Collecting idna<4,>=2.5
  Downloading idna-3.3-py3-none-any.whl (61 kB)
     ━━━━━━━━━━━━━━━━━━━━━━━━━━━━━━━━━━━━━━━ 61.2/61.2 kB 119.4 kB/s eta 0:00:00
Collecting charset-normalizer~=2.0.0
  Downloading charset_normalizer-2.0.12-py3-none-any.whl (39 kB)
Collecting beautifulsoup4
  Downloading beautifulsoup4-4.11.1-py3-none-any.whl (128 kB)
     ━━━━━━━━━━━━━━━━━━━━━━━━━━━━━━━━━━━━━ 128.2/128.2 kB 220.5 kB/s eta 0:00:00
Collecting importlib-metadata
  Downloading importlib_metadata-4.11.4-py3-none-any.whl (18 kB)
Collecting six>=1.5
  Downloading six-1.16.0-py2.py3-none-any.whl (11 kB)
Collecting async-generator>=1.9
  Downloading async_generator-1.10-py3-none-any.whl (18 kB)
Collecting sniffio
  Downloading sniffio-1.2.0-py3-none-any.whl (10 kB)
Collecting outcome
  Downloading outcome-1.1.0-py2.py3-none-any.whl (9.7 kB)
Collecting sortedcontainers
  Downloading sortedcontainers-2.4.0-py2.py3-none-any.whl (29 kB)
Collecting attrs>=19.2.0
  Downloading attrs-21.4.0-py2.py3-none-any.whl (60 kB)
     ━━━━━━━━━━━━━━━━━━━━━━━━━━━━━━━━━━━━━━━ 60.6/60.6 kB 974.8 kB/s eta 0:00:00
Collecting wsproto>=0.14
  Downloading wsproto-1.1.0-py3-none-any.whl (24 kB)
Collecting pyOpenSSL>=0.14
  Downloading pyOpenSSL-22.0.0-py2.py3-none-any.whl (55 kB)
     ━━━━━━━━━━━━━━━━━━━━━━━━━━━━━━━━━━━━━━━━ 55.8/55.8 kB 1.9 MB/s eta 0:00:00
Collecting cryptography>=1.3.4
  Downloading cryptography-37.0.2.tar.gz (585 kB)
     ━━━━━━━━━━━━━━━━━━━━━━━━━━━━━━━━━━━━━━━ 585.4/585.4 kB 2.7 MB/s eta 0:00:00
  Installing build dependencies: started
  Installing build dependencies: finished with status 'done'
  Getting requirements to build wheel: started
  Getting requirements to build wheel: finished with status 'done'
  Preparing metadata (pyproject.toml): started
  Preparing metadata (pyproject.toml): finished with status 'done'
Collecting PySocks!=1.5.7,<2.0,>=1.5.6
  Downloading PySocks-1.7.1-py3-none-any.whl (16 kB)
Collecting soupsieve>1.2
  Downloading soupsieve-2.3.2.post1-py3-none-any.whl (37 kB)
Collecting zipp>=0.5
  Downloading zipp-3.8.0-py3-none-any.whl (5.4 kB)
Collecting typing-extensions>=3.6.4
  Using cached typing_extensions-4.2.0-py3-none-any.whl (24 kB)
Requirement already satisfied: setuptools in /usr/local/lib/python3.7/site-packages (from zope.interface->datetime) (57.4.0)
Collecting cffi>=1.12
  Using cached cffi-1.15.0-cp37-cp37m-linux_armv7l.whl
Collecting h11<1,>=0.9.0
  Downloading h11-0.13.0-py3-none-any.whl (58 kB)
     ━━━━━━━━━━━━━━━━━━━━━━━━━━━━━━━━━━━━━━━━ 58.2/58.2 kB 2.0 MB/s eta 0:00:00
Collecting pycparser
  Using cached pycparser-2.21-py2.py3-none-any.whl (118 kB)
Building wheels for collected packages: pandas, bs4, fake_useragent, sqlalchemy, psycopg2, numpy, zope.interface, cryptography
  Building wheel for pandas (pyproject.toml): started
  Building wheel for pandas (pyproject.toml): still running...
  Building wheel for pandas (pyproject.toml): still running...
  Building wheel for pandas (pyproject.toml): still running...
  Building wheel for pandas (pyproject.toml): still running...
  Building wheel for pandas (pyproject.toml): still running...
  Building wheel for pandas (pyproject.toml): still running...
  Building wheel for pandas (pyproject.toml): still running...
  Building wheel for pandas (pyproject.toml): still running...
  Building wheel for pandas (pyproject.toml): still running...
  Building wheel for pandas (pyproject.toml): still running...
  Building wheel for pandas (pyproject.toml): still running...
  Building wheel for pandas (pyproject.toml): still running...
  Building wheel for pandas (pyproject.toml): still running...
  Building wheel for pandas (pyproject.toml): still running...
  Building wheel for pandas (pyproject.toml): still running...
  Building wheel for pandas (pyproject.toml): still running...
  Building wheel for pandas (pyproject.toml): still running...
  Building wheel for pandas (pyproject.toml): finished with status 'done'
  Created wheel for pandas: filename=pandas-1.3.5-cp37-cp37m-linux_armv7l.whl size=29777105 sha256=ccdb049230dd43d1efaf48f7b129be95bec00f5bee459de606d5c03f66784deb
  Stored in directory: /root/.cache/pip/wheels/8b/a0/9b/00c6a08ec7b87bf8d7bf4d9ddde7dd7da7c6e822041c580287
  Building wheel for bs4 (setup.py): started
  Building wheel for bs4 (setup.py): finished with status 'done'
  Created wheel for bs4: filename=bs4-0.0.1-py3-none-any.whl size=1271 sha256=0769dd03ed351375a649773c4fa131137a21a1e38a9860ad46c6dcb4ea0bf6e1
  Stored in directory: /root/.cache/pip/wheels/0a/9e/ba/20e5bbc1afef3a491f0b3bb74d508f99403aabe76eda2167ca
  Building wheel for fake_useragent (setup.py): started
  Building wheel for fake_useragent (setup.py): finished with status 'done'
  Created wheel for fake_useragent: filename=fake_useragent-0.1.11-py3-none-any.whl size=13502 sha256=729465fed8a3e0a65559ed1322ad45408ea59d57e7e68eac4b81b93a648675d7
  Stored in directory: /root/.cache/pip/wheels/ed/f7/62/50ab6c9a0b5567267ab76a9daa9d06315704209b2c5d032031
  Building wheel for sqlalchemy (setup.py): started
  Building wheel for sqlalchemy (setup.py): finished with status 'done'
  Created wheel for sqlalchemy: filename=SQLAlchemy-1.4.37-cp37-cp37m-linux_armv7l.whl size=1593874 sha256=f74c17c0f8c95570ef9329c289fc0a070eacc14ea0953d800fd52c3782a69c9a
  Stored in directory: /root/.cache/pip/wheels/c5/7a/f0/3a12793039f3abc8aa7e9c599e12c9da65889e8bf65ffab6a0
  Building wheel for psycopg2 (setup.py): started
  Building wheel for psycopg2 (setup.py): finished with status 'done'
  Created wheel for psycopg2: filename=psycopg2-2.9.3-cp37-cp37m-linux_armv7l.whl size=429967 sha256=384a42b35ba21e03bab25189a7a4862726bcf724558b9409d76ed079355d7a08
  Stored in directory: /root/.cache/pip/wheels/20/78/2c/d2f59d80d97357ffd6526f209083e46d57827d94d89ac8c91a
  Building wheel for numpy (pyproject.toml): started
  Building wheel for numpy (pyproject.toml): still running...
  Building wheel for numpy (pyproject.toml): still running...
  Building wheel for numpy (pyproject.toml): still running...
  Building wheel for numpy (pyproject.toml): still running...
  Building wheel for numpy (pyproject.toml): still running...
  Building wheel for numpy (pyproject.toml): still running...
  Building wheel for numpy (pyproject.toml): still running...
  Building wheel for numpy (pyproject.toml): still running...
  Building wheel for numpy (pyproject.toml): finished with status 'done'
  Created wheel for numpy: filename=numpy-1.21.6-cp37-cp37m-linux_armv7l.whl size=13647202 sha256=3ed6de514502dbcff34678dcc95b9532bc148b066990d33a63c8f8548cbb048f
  Stored in directory: /root/.cache/pip/wheels/4e/7e/9e/0fde042ccff2493994076dac9c3fbd78feb444c3bd94eb386a
  Building wheel for zope.interface (setup.py): started
  Building wheel for zope.interface (setup.py): finished with status 'done'
  Created wheel for zope.interface: filename=zope.interface-5.4.0-cp37-cp37m-linux_armv7l.whl size=251357 sha256=c4ae9e4ee31f147c4357507d70fc90a3354a9166fa9e9bf36654cb07ad8d3886
  Stored in directory: /root/.cache/pip/wheels/f8/5c/3e/b5145fe8a9350e5ba1c2b70f6dfb9e9b2f9406d9d74385b671
  Building wheel for cryptography (pyproject.toml): started
  Building wheel for cryptography (pyproject.toml): still running...
  Building wheel for cryptography (pyproject.toml): still running...
  Building wheel for cryptography (pyproject.toml): still running...
  Building wheel for cryptography (pyproject.toml): still running...
  Building wheel for cryptography (pyproject.toml): still running...
  Building wheel for cryptography (pyproject.toml): still running...
  Building wheel for cryptography (pyproject.toml): still running...
  Building wheel for cryptography (pyproject.toml): still running...
  Building wheel for cryptography (pyproject.toml): finished with status 'done'
  Created wheel for cryptography: filename=cryptography-37.0.2-cp37-cp37m-linux_armv7l.whl size=2171083 sha256=72f07ca0b7cf24aebb802a305061a02e031a0dbcbb46c3c0a46cfde36451eae7
  Stored in directory: /root/.cache/pip/wheels/10/67/5d/10edb0cd47aac0c81cf7bd99026c877c0b03704aabfc156eb3
Successfully built pandas bs4 fake_useragent sqlalchemy psycopg2 numpy zope.interface cryptography
Installing collected packages: sortedcontainers, pytz, fake_useragent, zope.interface, zipp, urllib3, typing-extensions, soupsieve, sniffio, six, PySocks, pycparser, psycopg2, numpy, idna, charset-normalizer, certifi, attrs, async-generator, requests, python-dateutil, outcome, importlib-metadata, h11, datetime, cffi, beautifulsoup4, wsproto, trio, sqlalchemy, pandas, cryptography, bs4, trio-websocket, pyOpenSSL, selenium
Successfully installed PySocks-1.7.1 async-generator-1.10 attrs-21.4.0 beautifulsoup4-4.11.1 bs4-0.0.1 certifi-2022.5.18.1 cffi-1.15.0 charset-normalizer-2.0.12 cryptography-37.0.2 datetime-4.4 fake_useragent-0.1.11 h11-0.13.0 idna-3.3 importlib-metadata-4.11.4 numpy-1.21.6 outcome-1.1.0 pandas-1.3.5 psycopg2-2.9.3 pyOpenSSL-22.0.0 pycparser-2.21 python-dateutil-2.8.2 pytz-2022.1 requests-2.27.1 selenium-4.2.0 six-1.16.0 sniffio-1.2.0 sortedcontainers-2.4.0 soupsieve-2.3.2.post1 sqlalchemy-1.4.37 trio-0.20.0 trio-websocket-0.9.2 typing-extensions-4.2.0 urllib3-1.26.9 wsproto-1.1.0 zipp-3.8.0 zope.interface-5.4.0
[91mWARNING: Running pip as the 'root' user can result in broken permissions and conflicting behaviour with the system package manager. It is recommended to use a virtual environment instead: https://pip.pypa.io/warnings/venv
[0mRemoving intermediate container 516636eca086
 ---> 577450586af7
Step 5/7 : WORKDIR .
 ---> Running in 0a95d36f1a04
Removing intermediate container 0a95d36f1a04
 ---> e88093e0e16b
Step 6/7 : ADD ./Base.py ./Crawler.py /
 ---> b63cbedadc19
Step 7/7 : CMD ["python", "-u", "/Crawler.py"]
 ---> Running in 8bc9d70cb9e1
Removing intermediate container 8bc9d70cb9e1
 ---> 99500c23c427
Successfully built 99500c23c427
Successfully tagged maatzum/big_scraper:latest
